main
…
Introdução

Os dados utilizados para esta análise são provenientes do site Comexstat, uma vez que este se consitui fonte original dos dados, ademais de as séries, neste caso, estarem em frequência mensal, o que é essencial para análise que considerem fenômenos sazonais como aqueles relacionados ao clima.

O primeiro passo é a leitura dos arquivos de dados de exportação em base mensal (extração do Comexstat) e, posteriormente a sua visualização. A tabela a seguir mostra de que forma os dados estão estruturados.

# A tibble: 3,640 × 4
   date       country    value volume
   <date>     <chr>      <dbl>  <dbl>
 1 2022-07-01 Paraguai 1120408 813355
 2 2022-05-01 Paraguai 1007287 717491
 3 2022-08-01 Paraguai  825225 558186
 4 2022-06-01 Paraguai  770775 526776
 5 2022-04-01 Paraguai  696924 511310
 6 2022-12-01 Paraguai  538950 381911
 7 2022-11-01 Paraguai  504968 352520
 8 2022-10-01 Paraguai  493628 348130
 9 2022-09-01 Paraguai  438856 297727
10 2022-10-01 Uruguai   389331 294157
# ℹ 3,630 more rows
…
